s670-HW2
…
Loading the Data

Using read.delim to load the txt file into table format.

vehicles = read.delim(file = "vehicles.txt", header = TRUE, sep = "", dec = ".")

Question 1:- By transforming the data to wide form or otherwise, estimate the mean number of vehiclesowned per household for each county in the data set. Plot the distribution of this variable.

Converting the data into wide format using pivot_wider.

 vehicles_wide=vehicles %>% 
pivot_wider(names_from = variable, values_from = c(estimate, moe))
vehicles_wide

## # A tibble: 3,220 x 16
##    GEOID NAME        estimate_total estimate_cars0 estimate_cars1 estimate_cars2
##    <int> <chr>                <int>          <int>          <int>          <int>
##  1  1001 Autauga Co~          21397            941           6745           7829
##  2  1003 Baldwin Co~          80930           2656          26040          34844
##  3  1005 Barbour Co~           9345            950           3426           3017
##  4  1007 Bibb Count~           6891            425           2121           2570
##  5  1009 Blount Cou~          20847            860           5429           7346
##  6  1011 Bullock Co~           3521            377           1077           1101
##  7  1013 Butler Cou~           6506            488           2133           2157
##  8  1015 Calhoun Co~          44605           2659          13546          16817
##  9  1017 Chambers C~          13448            980           4210           4602
## 10  1019 Cherokee C~          10737            480           2879           4072
## # ... with 3,210 more rows, and 10 more variables: estimate_cars3 <int>,
## #   estimate_cars4 <int>, estimate_median_income <int>, moe_total <int>,
## #   moe_cars0 <int>, moe_cars1 <int>, moe_cars2 <int>, moe_cars3 <int>,
## #   moe_cars4 <int>, moe_median_income <int>

Calculating the mean number of vehicles per household

vehicles_wide$mean_vehicles=((vehicles_wide$estimate_cars1+vehicles_wide$estimate_cars2*2+vehicles_wide$estimate_cars3*3+vehicles_wide$estimate_cars4*4)/(vehicles_wide$estimate_cars0+vehicles_wide$estimate_cars1+vehicles_wide$estimate_cars2+vehicles_wide$estimate_cars3+vehicles_wide$estimate_cars4))

vehicles_wide

## # A tibble: 3,220 x 17
##    GEOID NAME        estimate_total estimate_cars0 estimate_cars1 estimate_cars2
##    <int> <chr>                <int>          <int>          <int>          <int>
##  1  1001 Autauga Co~          21397            941           6745           7829
##  2  1003 Baldwin Co~          80930           2656          26040          34844
##  3  1005 Barbour Co~           9345            950           3426           3017
##  4  1007 Bibb Count~           6891            425           2121           2570
##  5  1009 Blount Cou~          20847            860           5429           7346
##  6  1011 Bullock Co~           3521            377           1077           1101
##  7  1013 Butler Cou~           6506            488           2133           2157
##  8  1015 Calhoun Co~          44605           2659          13546          16817
##  9  1017 Chambers C~          13448            980           4210           4602
## 10  1019 Cherokee C~          10737            480           2879           4072
## # ... with 3,210 more rows, and 11 more variables: estimate_cars3 <int>,
## #   estimate_cars4 <int>, estimate_median_income <int>, moe_total <int>,
## #   moe_cars0 <int>, moe_cars1 <int>, moe_cars2 <int>, moe_cars3 <int>,
## #   moe_cars4 <int>, moe_median_income <int>, mean_vehicles <dbl>
…
Question 2:- Plot vehicles owned (y-axis) against median income (x-axis) for each county. Add the linearregression line. How well does the line fit?

Calculating total number of cars owned

vehicles_wide$'total_vehicles'= (vehicles_wide$estimate_cars1+vehicles_wide$estimate_cars2*2+vehicles_wide$estimate_cars3*3+vehicles_wide$estimate_cars4*4)
vehicles_wide

## # A tibble: 3,220 x 18
##    GEOID NAME        estimate_total estimate_cars0 estimate_cars1 estimate_cars2
##    <int> <chr>                <int>          <int>          <int>          <int>
##  1  1001 Autauga Co~          21397            941           6745           7829
##  2  1003 Baldwin Co~          80930           2656          26040          34844
##  3  1005 Barbour Co~           9345            950           3426           3017
##  4  1007 Bibb Count~           6891            425           2121           2570
##  5  1009 Blount Cou~          20847            860           5429           7346
##  6  1011 Bullock Co~           3521            377           1077           1101
##  7  1013 Butler Cou~           6506            488           2133           2157
##  8  1015 Calhoun Co~          44605           2659          13546          16817
##  9  1017 Chambers C~          13448            980           4210           4602
## 10  1019 Cherokee C~          10737            480           2879           4072
## # ... with 3,210 more rows, and 12 more variables: estimate_cars3 <int>,
## #   estimate_cars4 <int>, estimate_median_income <int>, moe_total <int>,
## #   moe_cars0 <int>, moe_cars1 <int>, moe_cars2 <int>, moe_cars3 <int>,
## #   moe_cars4 <int>, moe_median_income <int>, mean_vehicles <dbl>,
## #   total_vehicles <dbl>
…
