s670-HW3
…
s670-HW3

Ruchik Rohit Dama

9/22/2021

Extracting the data from NHANES and omitting all NA values from the data.

nhanes.data=subset(NHANES, select = c("BPSysAve","Age","Weight","Height","Gender"))
nhanes.data=na.omit(nhanes.data)
nhanes.data

## # A tibble: 8,487 x 5
##    BPSysAve   Age Weight Height Gender
##       <int> <int>  <dbl>  <dbl> <fct> 
##  1      113    34   87.4   165. male  
##  2      113    34   87.4   165. male  
##  3      113    34   87.4   165. male  
##  4      112    49   86.7   168. female
##  5       86     9   29.8   133. male  
##  6      107     8   35.2   131. male  
##  7      118    45   75.7   167. female
##  8      118    45   75.7   167. female
##  9      118    45   75.7   167. female
## 10      111    66   68     170. male  
## # ... with 8,477 more rows
…
